…
    ## New names:
    ## * `` -> ...15
    ## * `` -> ...16
    ## * `` -> ...17

``` r
mtw_data
```

    ## # A tibble: 344 x 16
    ##    dumpster month  year date                weight_tons volume_cubic_ya…
    ##       <dbl> <chr> <dbl> <dttm>                    <dbl>            <dbl>
    ##  1        1 May    2014 2014-05-16 00:00:00        4.31               18
    ##  2        2 May    2014 2014-05-16 00:00:00        2.74               13
    ##  3        3 May    2014 2014-05-16 00:00:00        3.45               15
    ##  4        4 May    2014 2014-05-17 00:00:00        3.1                15
    ##  5        5 May    2014 2014-05-17 00:00:00        4.06               18
    ##  6        6 May    2014 2014-05-20 00:00:00        2.71               13
    ##  7        7 May    2014 2014-05-21 00:00:00        1.91                8
    ##  8        8 May    2014 2014-05-28 00:00:00        3.7                16
    ##  9        9 June   2014 2014-06-05 00:00:00        2.52               14
    ## 10       10 June   2014 2014-06-11 00:00:00        3.76               18
    ## # … with 334 more rows, and 10 more variables: plastic_bottles <dbl>,
    ## #   polystyrene <dbl>, cigarette_butts <dbl>, glass_bottles <dbl>,
    ## #   grocery_bags <dbl>, chip_bags <dbl>, sports_balls <int>,
    ## #   homes_powered <dbl>, x16 <lgl>, x17 <lgl>
…
``` r
p78_data=
  bind_rows(p7_data, p8_data) %>% 
  mutate(month = month.name[month]) %>% 
  select(year, everything())
p78_data
```

    ## # A tibble: 24 x 3
    ##    year  month     total
    ##    <chr> <chr>     <dbl>
    ##  1 2017  January    2.34
    ##  2 2017  February   1.46
    ##  3 2017  March      3.57
    ##  4 2017  April      3.99
    ##  5 2017  May        5.64
    ##  6 2017  June       1.4 
    ##  7 2017  July       7.09
    ##  8 2017  August     4.44
    ##  9 2017  September  1.95
    ## 10 2017  October    0   
    ## # … with 14 more rows
…
``` r
pols_data
```

    ## # A tibble: 822 x 9
    ##    year  month gov_gop sen_gop rep_gop gov_dem sen_dem rep_dem president
    ##    <chr> <chr>   <dbl>   <dbl>   <dbl>   <dbl>   <dbl>   <dbl> <chr>    
    ##  1 1947  Jan        23      51     253      23      45     198 dem      
    ##  2 1947  Feb        23      51     253      23      45     198 dem      
    ##  3 1947  Mar        23      51     253      23      45     198 dem      
    ##  4 1947  Apr        23      51     253      23      45     198 dem      
    ##  5 1947  May        23      51     253      23      45     198 dem      
    ##  6 1947  Jun        23      51     253      23      45     198 dem      
    ##  7 1947  Jul        23      51     253      23      45     198 dem      
    ##  8 1947  Aug        23      51     253      23      45     198 dem      
    ##  9 1947  Sep        23      51     253      23      45     198 dem      
    ## 10 1947  Oct        23      51     253      23      45     198 dem      
    ## # … with 812 more rows
…
    ## Parsed with column specification:
    ## cols(
    ##   date = col_character(),
    ##   close = col_double()
    ## )

``` r
snp_data
```

    ## # A tibble: 787 x 3
    ##    year  month close
    ##    <chr> <chr> <dbl>
    ##  1 1950  Jan    17.0
    ##  2 1950  Feb    17.2
    ##  3 1950  Mar    17.3
    ##  4 1950  Apr    18.0
    ##  5 1950  May    18.8
    ##  6 1950  Jun    17.7
    ##  7 1950  Jul    17.8
    ##  8 1950  Aug    18.4
    ##  9 1950  Sep    19.5
    ## 10 1950  Oct    19.5
    ## # … with 777 more rows
…
``` r
unem_data
```

    ## # A tibble: 816 x 3
    ##     year month unem_perc
    ##    <dbl> <chr>     <dbl>
    ##  1  1948 Jan         3.4
    ##  2  1948 Feb         3.8
    ##  3  1948 Mar         4  
    ##  4  1948 Apr         3.9
    ##  5  1948 May         3.5
    ##  6  1948 Jun         3.6
    ##  7  1948 Jul         3.6
    ##  8  1948 Aug         3.9
    ##  9  1948 Sep         3.8
    ## 10  1948 Oct         3.7
    ## # … with 806 more rows

``` r
s_p = 
  full_join(pols_data, snp_data, by= c("year","month")) %>% 
  mutate(year= as.double(year))

s_p_u=
  full_join(s_p, unem_data, by= c("year", "month"))
s_p_u
```

    ## # A tibble: 828 x 11
    ##     year month gov_gop sen_gop rep_gop gov_dem sen_dem rep_dem president
    ##    <dbl> <chr>   <dbl>   <dbl>   <dbl>   <dbl>   <dbl>   <dbl> <chr>    
    ##  1  1947 Jan        23      51     253      23      45     198 dem      
    ##  2  1947 Feb        23      51     253      23      45     198 dem      
    ##  3  1947 Mar        23      51     253      23      45     198 dem      
    ##  4  1947 Apr        23      51     253      23      45     198 dem      
    ##  5  1947 May        23      51     253      23      45     198 dem      
    ##  6  1947 Jun        23      51     253      23      45     198 dem      
    ##  7  1947 Jul        23      51     253      23      45     198 dem      
    ##  8  1947 Aug        23      51     253      23      45     198 dem      
    ##  9  1947 Sep        23      51     253      23      45     198 dem      
    ## 10  1947 Oct        23      51     253      23      45     198 dem      
    ## # … with 818 more rows, and 2 more variables: close <dbl>, unem_perc <dbl>
…
    ## Parsed with column specification:
    ## cols(
    ##   `Year of Birth` = col_double(),
    ##   Gender = col_character(),
    ##   Ethnicity = col_character(),
    ##   `Child's First Name` = col_character(),
    ##   Count = col_double(),
    ##   Rank = col_double()
    ## )

``` r
pbn_data
```

    ## # A tibble: 12,180 x 6
    ##    year_of_birth gender ethnicity              childs_first_na… count  rank
    ##            <dbl> <chr>  <chr>                  <chr>            <dbl> <dbl>
    ##  1          2016 female asian and pacific isl… Olivia             172     1
    ##  2          2016 female asian and pacific isl… Chloe              112     2
    ##  3          2016 female asian and pacific isl… Sophia             104     3
    ##  4          2016 female asian and pacific isl… Emily               99     4
    ##  5          2016 female asian and pacific isl… Emma                99     4
    ##  6          2016 female asian and pacific isl… Mia                 79     5
    ##  7          2016 female asian and pacific isl… Charlotte           59     6
    ##  8          2016 female asian and pacific isl… Sarah               57     7
    ##  9          2016 female asian and pacific isl… Isabella            56     8
    ## 10          2016 female asian and pacific isl… Hannah              56     8
    ## # … with 12,170 more rows

``` r
oli_rank=
  pbn_data %>%
  filter(childs_first_name %in% "Olivia")
oli_rank
```

    ## # A tibble: 24 x 6
    ##    year_of_birth gender ethnicity              childs_first_na… count  rank
    ##            <dbl> <chr>  <chr>                  <chr>            <dbl> <dbl>
    ##  1          2016 female asian and pacific isl… Olivia             172     1
    ##  2          2016 female black non hispanic     Olivia              49     8
    ##  3          2016 female hispanic               Olivia             108    13
    ##  4          2016 female white non hispanic     Olivia             230     1
    ##  5          2015 female asian and pacific isl… Olivia             188     1
    ##  6          2015 female black non hispanic     Olivia              82     4
    ##  7          2015 female hispanic               Olivia              94    16
    ##  8          2015 female white non hispanic     Olivia             225     1
    ##  9          2014 female asian and pacific isl… Olivia             141     1
    ## 10          2014 female black non hispanic     Olivia              52     8
    ## # … with 14 more rows

``` r
eth_rank=
  pbn_data %>% 
  filter(childs_first_name %in% "Ethan")
eth_rank
```

    ## # A tibble: 24 x 6
    ##    year_of_birth gender ethnicity              childs_first_na… count  rank
    ##            <dbl> <chr>  <chr>                  <chr>            <dbl> <dbl>
    ##  1          2016 male   asian and pacific isl… Ethan              193     1
    ##  2          2016 male   black non hispanic     Ethan              107     5
    ##  3          2016 male   hispanic               Ethan              250     7
    ##  4          2016 male   white non hispanic     Ethan              133    20
    ##  5          2015 male   asian and pacific isl… Ethan              172     2
    ##  6          2015 male   black non hispanic     Ethan              111     5
    ##  7          2015 male   hispanic               Ethan              332     3
    ##  8          2015 male   white non hispanic     Ethan              138    19
    ##  9          2014 male   asian and pacific isl… Ethan              179     2
    ## 10          2014 male   black non hispanic     Ethan              138     1
    ## # … with 14 more rows
…
